{
    "Stations": [
        {
            "Commodities": [
                {
                    "BuyPrice": "2452",
                    "Name": "Advanced Catalysers",
                    "SellPrice": "2424",
                    "Supply": "125747",
                    "lastUpdate": "2014-07-04 23:05:51"
                },
                {
                    "BuyPrice": "776",
                    "Name": "Agri-Medicines",
                    "SellPrice": "776",
                    "Supply": "330844",
                    "lastUpdate": "2014-07-04 23:05:25"
                },
                {
                    "BuyPrice": "0",
                    "Name": "Algae",
                    "SellPrice": "64",
                    "Supply": "0",
                    "lastUpdate": "2014-07-04 23:04:54"
                },
                {
                    "BuyPrice": "0",
                    "Name": "Aluminium",
                    "SellPrice": "251",
                    "Supply": "0",
                    "lastUpdate": "2014-07-04 23:05:41"
                },
                {
                    "BuyPrice": "0",
                    "Name": "Animal Meat",
                    "SellPrice": "1262",
                    "Supply": "0",
                    "lastUpdate": "2014-07-04 23:04:51"
                },
                {
                    "BuyPrice": "3518",
                    "Name": "Auto-Fabricators",
                    "SellPrice": "3477",
                    "Supply": "17834",
                    "lastUpdate": "2014-07-04 23:05:46"
                },
                {
                    "BuyPrice": "0",
                    "Name": "Basic Medicines",
                    "SellPrice": "227",
                    "Supply": "0",
                    "lastUpdate": "2014-07-04 23:04:55"
                },
                {
                    "BuyPrice": "0",
                    "Name": "Bertrandite",
                    "SellPrice": "2477",
                    "Supply": "0",
                    "lastUpdate": "2014-07-04 23:05:44"
                },
                {
                    "BuyPrice": "725",
                    "Name": "Bioreducing Lichen",
                    "SellPrice": "716",
                    "Supply": "193646",
                    "lastUpdate": "2014-07-04 23:05:47"
                },
                {
                    "BuyPrice": "23",
                    "Name": "Biowaste",
                    "SellPrice": "23",
                    "Supply": "781",
                    "lastUpdate": "2014-07-04 23:05:57"
                },
                {
                    "BuyPrice": "0",
                    "Name": "Clothing",
                    "SellPrice": "235",
                    "Supply": "0",
                    "lastUpdate": "2014-07-04 23:04:38"
                },
                {
                    "BuyPrice": "0",
                    "Name": "Coffee",
                    "SellPrice": "1262",
                    "Supply": "0",
                    "lastUpdate": "2014-07-04 23:04:48"
                },
                {
                    "BuyPrice": "2452",
                    "Name": "Combat Stabilisers",
                    "SellPrice": "2424",
                    "Supply": "774090",
                    "lastUpdate": "2014-07-04 23:05:04"
                },
                {
                    "BuyPrice": "0",
                    "Name": "Computer Components",
                    "SellPrice": "460",
                    "Supply": "0",
                    "lastUpdate": "2014-07-04 23:05:52"
                },
                {
                    "BuyPrice": "6654",
                    "Name": "Consumer Technology",
                    "SellPrice": "6580",
                    "Supply": "4933",
                    "lastUpdate": "2014-07-04 23:04:34"
                },
                {
                    "BuyPrice": "0",
                    "Name": "Dom. Appliances",
                    "SellPrice": "460",
                    "Supply": "0",
                    "lastUpdate": "2014-07-04 23:04:41"
                },
                {
                    "BuyPrice": "0",
                    "Name": "Fish",
                    "SellPrice": "682",
                    "Supply": "0",
                    "lastUpdate": "2014-07-04 23:04:49"
                },
                {
                    "BuyPrice": "0",
                    "Name": "Food Cartridges",
                    "SellPrice": "61",
                    "Supply": "0",
                    "lastUpdate": "2014-07-04 23:04:45"
                },
                {
                    "BuyPrice": "0",
                    "Name": "Gold",
                    "SellPrice": "9538",
                    "Supply": "0",
                    "lastUpdate": "2014-07-04 23:05:31"
                },
                {
                    "BuyPrice": "0",
                    "Name": "Grain",
                    "SellPrice": "120",
                    "Supply": "0",
                    "lastUpdate": "2014-07-04 23:04:52"
                },
                {
                    "BuyPrice": "0",
                    "Name": "H.E. Suits",
                    "SellPrice": "192",
                    "Supply": "0",
                    "lastUpdate": "2014-07-04 23:05:54"
                },
                {
                    "BuyPrice": "0",
                    "Name": "Hydrogen Fuels",
                    "SellPrice": "23",
                    "Supply": "0",
                    "lastUpdate": "2014-07-04 23:04:32"
                },
                {
                    "BuyPrice": "1607",
                    "Name": "Non-Lethal Wpns",
                    "SellPrice": "1588",
                    "Supply": "3197",
                    "lastUpdate": "2014-07-04 23:06:00"
                },
                {
                    "BuyPrice": "3037",
                    "Name": "Performance Enhancers",
                    "SellPrice": "3002",
                    "Supply": "3590569",
                    "lastUpdate": "2014-07-04 23:05:00"
                },
                {
                    "BuyPrice": "83",
                    "Name": "Pesticides",
                    "SellPrice": "81",
                    "Supply": "545692",
                    "lastUpdate": "2014-07-04 23:04:27"
                },
                {
                    "BuyPrice": "6038",
                    "Name": "Progenitor Cells",
                    "SellPrice": "6035",
                    "Supply": "699923",
                    "lastUpdate": "2014-07-04 23:04:57"
                },
                {
                    "BuyPrice": "1879",
                    "Name": "Reactive Armour",
                    "SellPrice": "1878",
                    "Supply": "1294",
                    "lastUpdate": "2014-07-04 23:06:02"
                },
                {
                    "BuyPrice": "5161",
                    "Name": "Resonating Separators",
                    "SellPrice": "5158",
                    "Supply": "61719",
                    "lastUpdate": "2014-07-04 23:05:49"
                },
                {
                    "BuyPrice": "1494",
                    "Name": "Robotics",
                    "SellPrice": "1476",
                    "Supply": "36356",
                    "lastUpdate": "2014-07-04 23:05:55"
                },
                {
                    "BuyPrice": "39",
                    "Name": "Scrap",
                    "SellPrice": "39",
                    "Supply": "35057",
                    "lastUpdate": "2014-07-04 23:05:59"
                },
                {
                    "BuyPrice": "0",
                    "Name": "Tantalum",
                    "SellPrice": "3970",
                    "Supply": "0",
                    "lastUpdate": "2014-07-04 23:05:42"
                },
                {
                    "BuyPrice": "0",
                    "Name": "Tea",
                    "SellPrice": "1445",
                    "Supply": "0",
                    "lastUpdate": "2014-07-04 23:04:46"
                }
            ],
            "id": "6",
            "station": "Aulin Enterprise",
            "system": "Aulin"
        },
        {
            "Commodities": [
                {
                    "BuyPrice": "0",
                    "Name": "Agri-Medicines",
                    "SellPrice": "967",
                    "Supply": "0",
                    "lastUpdate": "2014-07-04 23:20:16"
                },
                {
                    "BuyPrice": "24",
                    "Name": "Algae",
                    "SellPrice": "24",
                    "Supply": "50141",
                    "lastUpdate": "2014-07-04 23:20:03"
                },
                {
                    "BuyPrice": "1160",
                    "Name": "Animal Meat",
                    "SellPrice": "1146",
                    "Supply": "278",
                    "lastUpdate": "2014-07-04 23:24:59"
                },
                {
                    "BuyPrice": "0",
                    "Name": "Animal Monitors",
                    "SellPrice": "220",
                    "Supply": "0",
                    "lastUpdate": "2014-07-04 23:20:21"
                },
                {
                    "BuyPrice": "0",
                    "Name": "Aquaponic Systems",
                    "SellPrice": "192",
                    "Supply": "0",
                    "lastUpdate": "2014-07-04 23:20:22"
                },
                {
                    "BuyPrice": "0",
                    "Name": "Basic Medicines",
                    "SellPrice": "235",
                    "Supply": "0",
                    "lastUpdate": "2014-07-04 23:20:20"
                },
                {
                    "BuyPrice": "0",
                    "Name": "Biowaste",
                    "SellPrice": "54",
                    "Supply": "0",
                    "lastUpdate": "2014-07-04 23:20:27"
                },
                {
                    "BuyPrice": "0",
                    "Name": "Clothing",
                    "SellPrice": "235",
                    "Supply": "0",
                    "lastUpdate": "2014-07-04 23:19:56"
                },
                {
                    "BuyPrice": "1151",
                    "Name": "Coffee",
                    "SellPrice": "1138",
                    "Supply": "1757",
                    "lastUpdate": "2014-07-04 23:20:05"
                },
                {
                    "BuyPrice": "0",
                    "Name": "Combat Stabilisers",
                    "SellPrice": "2841",
                    "Supply": "0",
                    "lastUpdate": "2014-07-04 23:20:14"
                },
                {
                    "BuyPrice": "0",
                    "Name": "Consumer Technology",
                    "SellPrice": "6826",
                    "Supply": "0",
                    "lastUpdate": "2014-07-04 23:19:57"
                },
                {
                    "BuyPrice": "263",
                    "Name": "Cotton",
                    "SellPrice": "259",
                    "Supply": "6145",
                    "lastUpdate": "2014-07-04 23:24:31"
                },
                {
                    "BuyPrice": "0",
                    "Name": "Crop Harvesters",
                    "SellPrice": "2170",
                    "Supply": "0",
                    "lastUpdate": "2014-07-04 23:20:13"
                },
                {
                    "BuyPrice": "0",
                    "Name": "Dom. Appliances",
                    "SellPrice": "461",
                    "Supply": "0",
                    "lastUpdate": "2014-07-04 23:19:54"
                },
                {
                    "BuyPrice": "0",
                    "Name": "Fish",
                    "SellPrice": "684",
                    "Supply": "0",
                    "lastUpdate": "2014-07-04 23:20:08"
                },
                {
                    "BuyPrice": "65",
                    "Name": "Grain",
                    "SellPrice": "65",
                    "Supply": "72132",
                    "lastUpdate": "2014-07-04 23:20:04"
                },
                {
                    "BuyPrice": "21",
                    "Name": "Hydrogen Fuels",
                    "SellPrice": "21",
                    "Supply": "37287",
                    "lastUpdate": "2014-07-04 23:19:43"
                },
                {
                    "BuyPrice": "48",
                    "Name": "Leather",
                    "SellPrice": "48",
                    "Supply": "40332",
                    "lastUpdate": "2014-07-04 23:20:24"
                },
                {
                    "BuyPrice": "479",
                    "Name": "Liquor",
                    "SellPrice": "473",
                    "Supply": "7383",
                    "lastUpdate": "2014-07-04 23:19:59"
                },
                {
                    "BuyPrice": "0",
                    "Name": "Marine Supplies",
                    "SellPrice": "4259",
                    "Supply": "0",
                    "lastUpdate": "2014-07-04 23:20:12"
                },
                {
                    "BuyPrice": "66",
                    "Name": "Mineral Oil",
                    "SellPrice": "66",
                    "Supply": "2052",
                    "lastUpdate": "2014-07-04 23:19:51"
                },
                {
                    "BuyPrice": "0",
                    "Name": "Narcotics",
                    "SellPrice": "5213",
                    "Supply": "0",
                    "lastUpdate": "2014-07-04 23:20:01"
                },
                {
                    "BuyPrice": "0",
                    "Name": "Non-Lethal Wpns",
                    "SellPrice": "1773",
                    "Supply": "0",
                    "lastUpdate": "2014-07-04 23:20:28"
                },
                {
                    "BuyPrice": "0",
                    "Name": "Performance Enhancers",
                    "SellPrice": "3478",
                    "Supply": "0",
                    "lastUpdate": "2014-07-04 23:20:18"
                },
                {
                    "BuyPrice": "0",
                    "Name": "Personal Weapons",
                    "SellPrice": "4259",
                    "Supply": "0",
                    "lastUpdate": "2014-07-04 23:20:32"
                },
                {
                    "BuyPrice": "0",
                    "Name": "Pesticides",
                    "SellPrice": "138",
                    "Supply": "0",
                    "lastUpdate": "2014-07-04 23:20:52"
                },
                {
                    "BuyPrice": "0",
                    "Name": "Plastics",
                    "SellPrice": "62",
                    "Supply": "0",
                    "lastUpdate": "2014-07-04 23:20:11"
                },
                {
                    "BuyPrice": "0",
                    "Name": "Progenitor Cells",
                    "SellPrice": "6806",
                    "Supply": "0",
                    "lastUpdate": "2014-07-04 23:24:20"
                },
                {
                    "BuyPrice": "0",
                    "Name": "Reactive Armour",
                    "SellPrice": "2029",
                    "Supply": "0",
                    "lastUpdate": "2014-07-04 23:20:30"
                },
                {
                    "BuyPrice": "1342",
                    "Name": "Tea",
                    "SellPrice": "1326",
                    "Supply": "695",
                    "lastUpdate": "2014-07-04 23:20:07"
                },
                {
                    "BuyPrice": "0",
                    "Name": "Terrain Enrichment Sys.",
                    "SellPrice": "4638",
                    "Supply": "0",
                    "lastUpdate": "2014-07-04 23:20:23"
                }
            ],
            "id": "1",
            "station": "Azeban City",
            "system": "Eranin"
        },
        {
            "Commodities": [
                {
                    "BuyPrice": "2461",
                    "Name": "Advanced Catalysers",
                    "SellPrice": "2434",
                    "Supply": "1422",
                    "lastUpdate": "2014-07-04 22:52:40"
                },
                {
                    "BuyPrice": "0",
                    "Name": "Algae",
                    "SellPrice": "65",
                    "Supply": "0",
                    "lastUpdate": "2014-07-04 22:52:12"
                },
                {
                    "BuyPrice": "0",
                    "Name": "Aluminium",
                    "SellPrice": "252",
                    "Supply": "0",
                    "lastUpdate": "2014-07-04 22:52:32"
                },
                {
                    "BuyPrice": "0",
                    "Name": "Animal Meat",
                    "SellPrice": "1268",
                    "Supply": "0",
                    "lastUpdate": "2014-07-04 22:52:15"
                },
                {
                    "BuyPrice": "164",
                    "Name": "Animal Monitors",
                    "SellPrice": "162",
                    "Supply": "2966",
                    "lastUpdate": "2014-07-04 22:52:50"
                },
                {
                    "BuyPrice": "138",
                    "Name": "Aquaponic Systems",
                    "SellPrice": "136",
                    "Supply": "4044",
                    "lastUpdate": "2014-07-04 22:52:48"
                },
                {
                    "BuyPrice": "0",
                    "Name": "Basic Medicines",
                    "SellPrice": "236",
                    "Supply": "0",
                    "lastUpdate": "2014-07-04 22:52:27"
                },
                {
                    "BuyPrice": "23",
                    "Name": "Biowaste",
                    "SellPrice": "23",
                    "Supply": "156",
                    "lastUpdate": "2014-07-04 22:52:53"
                },
                {
                    "BuyPrice": "0",
                    "Name": "Clothing",
                    "SellPrice": "236",
                    "Supply": "0",
                    "lastUpdate": "2014-07-04 22:51:44"
                },
                {
                    "BuyPrice": "0",
                    "Name": "Coffee",
                    "SellPrice": "1268",
                    "Supply": "0",
                    "lastUpdate": "2014-07-04 22:52:13"
                },
                {
                    "BuyPrice": "0",
                    "Name": "Combat Stabilisers",
                    "SellPrice": "2838",
                    "Supply": "0",
                    "lastUpdate": "2014-07-04 22:52:23"
                },
                {
                    "BuyPrice": "0",
                    "Name": "Computer Components",
                    "SellPrice": "462",
                    "Supply": "0",
                    "lastUpdate": "2014-07-04 22:52:41"
                },
                {
                    "BuyPrice": "6679",
                    "Name": "Consumer Technology",
                    "SellPrice": "6608",
                    "Supply": "493",
                    "lastUpdate": "2014-07-04 22:51:37"
                },
                {
                    "BuyPrice": "0",
                    "Name": "Dom. Appliances",
                    "SellPrice": "462",
                    "Supply": "0",
                    "lastUpdate": "2014-07-04 22:51:34"
                },
                {
                    "BuyPrice": "0",
                    "Name": "Fish",
                    "SellPrice": "685",
                    "Supply": "0",
                    "lastUpdate": "2014-07-04 22:52:10"
                },
                {
                    "BuyPrice": "0",
                    "Name": "Food Cartridges",
                    "SellPrice": "61",
                    "Supply": "0",
                    "lastUpdate": "2014-07-04 22:52:08"
                },
                {
                    "BuyPrice": "0",
                    "Name": "Gold",
                    "SellPrice": "9578",
                    "Supply": "0",
                    "lastUpdate": "2014-07-04 22:53:07"
                },
                {
                    "BuyPrice": "0",
                    "Name": "Grain",
                    "SellPrice": "121",
                    "Supply": "0",
                    "lastUpdate": "2014-07-04 22:52:06"
                },
                {
                    "BuyPrice": "0",
                    "Name": "H.E. Suits",
                    "SellPrice": "187",
                    "Supply": "0",
                    "lastUpdate": "2014-07-04 22:52:35"
                },
                {
                    "BuyPrice": "0",
                    "Name": "Hydrogen Fuels",
                    "SellPrice": "23",
                    "Supply": "0",
                    "lastUpdate": "2014-07-04 22:51:29"
                },
                {
                    "BuyPrice": "5045",
                    "Name": "Narcotics",
                    "SellPrice": "5045",
                    "Supply": "1401",
                    "lastUpdate": "2014-07-04 22:51:59"
                },
                {
                    "BuyPrice": "1499",
                    "Name": "Non-Lethal Wpns",
                    "SellPrice": "1482",
                    "Supply": "442523",
                    "lastUpdate": "2014-07-04 22:54:34"
                },
                {
                    "BuyPrice": "3322",
                    "Name": "Performance Enhancers",
                    "SellPrice": "3286",
                    "Supply": "23171",
                    "lastUpdate": "2014-07-04 22:52:18"
                },
                {
                    "BuyPrice": "4084",
                    "Name": "Personal Weapons",
                    "SellPrice": "4083",
                    "Supply": "163",
                    "lastUpdate": "2014-07-04 22:54:31"
                },
                {
                    "BuyPrice": "83",
                    "Name": "Pesticides",
                    "SellPrice": "82",
                    "Supply": "413538",
                    "lastUpdate": "2014-07-04 22:51:22"
                },
                {
                    "BuyPrice": "0",
                    "Name": "Progenitor Cells",
                    "SellPrice": "6609",
                    "Supply": "0",
                    "lastUpdate": "2014-07-04 22:52:21"
                },
                {
                    "BuyPrice": "1886",
                    "Name": "Reactive Armour",
                    "SellPrice": "1886",
                    "Supply": "256",
                    "lastUpdate": "2014-07-04 22:54:29"
                },
                {
                    "BuyPrice": "5180",
                    "Name": "Resonating Separators",
                    "SellPrice": "5179",
                    "Supply": "104909",
                    "lastUpdate": "2014-07-04 22:53:29"
                },
                {
                    "BuyPrice": "1649",
                    "Name": "Robotics",
                    "SellPrice": "1630",
                    "Supply": "1114",
                    "lastUpdate": "2014-07-04 22:53:15"
                },
                {
                    "BuyPrice": "44",
                    "Name": "Scrap",
                    "SellPrice": "44",
                    "Supply": "1749",
                    "lastUpdate": "2014-07-04 22:54:27"
                },
                {
                    "BuyPrice": "0",
                    "Name": "Tantalum",
                    "SellPrice": "3987",
                    "Supply": "0",
                    "lastUpdate": "2014-07-04 22:52:29"
                },
                {
                    "BuyPrice": "0",
                    "Name": "Tea",
                    "SellPrice": "1451",
                    "Supply": "0",
                    "lastUpdate": "2014-07-04 22:52:17"
                },
                {
                    "BuyPrice": "4328",
                    "Name": "Terrain Enrichment Sys.",
                    "SellPrice": "4328",
                    "Supply": "3993",
                    "lastUpdate": "2014-07-04 22:54:12"
                }
            ],
            "id": "2",
            "station": "Beagle 2 Landing",
            "system": "Asellus Primus"
        },
        {
            "Commodities": [
                {
                    "BuyPrice": "0",
                    "Name": "Agri-Medicines",
                    "SellPrice": "966",
                    "Supply": "0",
                    "lastUpdate": "2014-07-04 23:35:56"
                },
                {
                    "BuyPrice": "24",
                    "Name": "Algae",
                    "SellPrice": "24",
                    "Supply": "89095",
                    "lastUpdate": "2014-07-04 23:35:34"
                },
                {
                    "BuyPrice": "0",
                    "Name": "Alloys",
                    "SellPrice": "1182",
                    "Supply": "0",
                    "lastUpdate": "2014-07-04 23:35:36"
                },
                {
                    "BuyPrice": "0",
                    "Name": "Aluminium",
                    "SellPrice": "251",
                    "Supply": "0",
                    "lastUpdate": "2014-07-04 23:36:25"
                },
                {
                    "BuyPrice": "0",
                    "Name": "Animal Meat",
                    "SellPrice": "1264",
                    "Supply": "0",
                    "lastUpdate": "2014-07-04 23:35:31"
                },
                {
                    "BuyPrice": "0",
                    "Name": "Aquaponic Systems",
                    "SellPrice": "192",
                    "Supply": "0",
                    "lastUpdate": "2014-07-04 23:36:11"
                },
                {
                    "BuyPrice": "0",
                    "Name": "Auto-Fabricators",
                    "SellPrice": "3717",
                    "Supply": "0",
                    "lastUpdate": "2014-07-04 23:37:19"
                },
                {
                    "BuyPrice": "163",
                    "Name": "Basic Medicines",
                    "SellPrice": "161",
                    "Supply": "119514",
                    "lastUpdate": "2014-07-04 23:35:55"
                },
                {
                    "BuyPrice": "0",
                    "Name": "Biowaste",
                    "SellPrice": "4",
                    "Supply": "0",
                    "lastUpdate": "2014-07-04 23:36:24"
                },
                {
                    "BuyPrice": "178",
                    "Name": "Clothing",
                    "SellPrice": "175",
                    "Supply": "5685",
                    "lastUpdate": "2014-07-04 23:35:20"
                },
                {
                    "BuyPrice": "0",
                    "Name": "Cobalt",
                    "SellPrice": "645",
                    "Supply": "0",
                    "lastUpdate": "2014-07-04 23:36:03"
                },
                {
                    "BuyPrice": "0",
                    "Name": "Coffee",
                    "SellPrice": "1264",
                    "Supply": "0",
                    "lastUpdate": "2014-07-04 23:35:23"
                },
                {
                    "BuyPrice": "0",
                    "Name": "Combat Stabilisers",
                    "SellPrice": "2838",
                    "Supply": "0",
                    "lastUpdate": "2014-07-04 23:35:53"
                },
                {
                    "BuyPrice": "382",
                    "Name": "Computer Components",
                    "SellPrice": "381",
                    "Supply": "23601",
                    "lastUpdate": "2014-07-04 23:36:09"
                },
                {
                    "BuyPrice": "0",
                    "Name": "Consumer Technology",
                    "SellPrice": "6819",
                    "Supply": "0",
                    "lastUpdate": "2014-07-04 23:35:17"
                },
                {
                    "BuyPrice": "0",
                    "Name": "Cotton",
                    "SellPrice": "329",
                    "Supply": "0",
                    "lastUpdate": "2014-07-04 23:37:13"
                },
                {
                    "BuyPrice": "1936",
                    "Name": "Crop Harvesters",
                    "SellPrice": "1911",
                    "Supply": "16493",
                    "lastUpdate": "2014-07-04 23:35:42"
                },
                {
                    "BuyPrice": "382",
                    "Name": "Dom. Appliances",
                    "SellPrice": "381",
                    "Supply": "9438",
                    "lastUpdate": "2014-07-04 23:35:12"
                },
                {
                    "BuyPrice": "551",
                    "Name": "Fish",
                    "SellPrice": "542",
                    "Supply": "108",
                    "lastUpdate": "2014-07-04 23:35:29"
                },
                {
                    "BuyPrice": "30",
                    "Name": "Food Cartridges",
                    "SellPrice": "30",
                    "Supply": "8359",
                    "lastUpdate": "2014-07-04 23:35:27"
                },
                {
                    "BuyPrice": "0",
                    "Name": "Gold",
                    "SellPrice": "9552",
                    "Supply": "0",
                    "lastUpdate": "2014-07-04 23:35:58"
                },
                {
                    "BuyPrice": "0",
                    "Name": "Grain",
                    "SellPrice": "121",
                    "Supply": "0",
                    "lastUpdate": "2014-07-04 23:35:32"
                },
                {
                    "BuyPrice": "0",
                    "Name": "H.E. Suits",
                    "SellPrice": "192",
                    "Supply": "0",
                    "lastUpdate": "2014-07-04 23:36:07"
                },
                {
                    "BuyPrice": "63",
                    "Name": "Hel-Static Furnaces",
                    "SellPrice": "63",
                    "Supply": "7922",
                    "lastUpdate": "2014-07-04 23:35:39"
                },
                {
                    "BuyPrice": "0",
                    "Name": "Hydrogen Fuels",
                    "SellPrice": "4",
                    "Supply": "0",
                    "lastUpdate": "2014-07-04 23:35:03"
                },
                {
                    "BuyPrice": "0",
                    "Name": "Leather",
                    "SellPrice": "96",
                    "Supply": "0",
                    "lastUpdate": "2014-07-04 23:36:34"
                },
                {
                    "BuyPrice": "0",
                    "Name": "Marine Supplies",
                    "SellPrice": "4139",
                    "Supply": "0",
                    "lastUpdate": "2014-07-04 23:35:44"
                },
                {
                    "BuyPrice": "442",
                    "Name": "Mineral Extractors",
                    "SellPrice": "441",
                    "Supply": "425",
                    "lastUpdate": "2014-07-04 23:35:41"
                },
                {
                    "BuyPrice": "66",
                    "Name": "Mineral Oil",
                    "SellPrice": "66",
                    "Supply": "2888",
                    "lastUpdate": "2014-07-04 23:35:01"
                },
                {
                    "BuyPrice": "0",
                    "Name": "Performance Enhancers",
                    "SellPrice": "3475",
                    "Supply": "0",
                    "lastUpdate": "2014-07-04 23:35:46"
                },
                {
                    "BuyPrice": "0",
                    "Name": "Pesticides",
                    "SellPrice": "138",
                    "Supply": "0",
                    "lastUpdate": "2014-07-04 23:34:57"
                },
                {
                    "BuyPrice": "0",
                    "Name": "Plastics",
                    "SellPrice": "62",
                    "Supply": "0",
                    "lastUpdate": "2014-07-04 23:35:38"
                },
                {
                    "BuyPrice": "0",
                    "Name": "Progenitor Cells",
                    "SellPrice": "6819",
                    "Supply": "0",
                    "lastUpdate": "2014-07-04 23:35:52"
                },
                {
                    "BuyPrice": "0",
                    "Name": "Robotics",
                    "SellPrice": "1771",
                    "Supply": "0",
                    "lastUpdate": "2014-07-04 23:36:06"
                },
                {
                    "BuyPrice": "44",
                    "Name": "Scrap",
                    "SellPrice": "44",
                    "Supply": "26190",
                    "lastUpdate": "2014-07-04 23:36:19"
                },
                {
                    "BuyPrice": "0",
                    "Name": "Tantalum",
                    "SellPrice": "3976",
                    "Supply": "0",
                    "lastUpdate": "2014-07-04 23:36:02"
                },
                {
                    "BuyPrice": "0",
                    "Name": "Tea",
                    "SellPrice": "1447",
                    "Supply": "0",
                    "lastUpdate": "2014-07-04 23:35:25"
                },
                {
                    "BuyPrice": "0",
                    "Name": "Terrain Enrichment Sys.",
                    "SellPrice": "4729",
                    "Supply": "0",
                    "lastUpdate": "2014-07-04 23:36:05"
                },
                {
                    "BuyPrice": "0",
                    "Name": "Titanium",
                    "SellPrice": "966",
                    "Supply": "0",
                    "lastUpdate": "2014-07-04 23:36:00"
                }
            ],
            "id": "7",
            "station": "Chango Dock",
            "system": "I Bootis"
        },
        {
            "Commodities": [
                {
                    "BuyPrice": "0",
                    "Name": "Advanced Catalysers",
                    "SellPrice": "2712",
                    "Supply": "0",
                    "lastUpdate": "2014-07-04 22:12:18"
                },
                {
                    "BuyPrice": "0",
                    "Name": "Algae",
                    "SellPrice": "66",
                    "Supply": "0",
                    "lastUpdate": "2014-07-04 22:11:47"
                },
                {
                    "BuyPrice": "1068",
                    "Name": "Alloys",
                    "SellPrice": "1067",
                    "Supply": "6667",
                    "lastUpdate": "2014-07-04 22:11:52"
                },
                {
                    "BuyPrice": "184",
                    "Name": "Aluminium",
                    "SellPrice": "184",
                    "Supply": "131356",
                    "lastUpdate": "2014-07-04 22:12:07"
                },
                {
                    "BuyPrice": "0",
                    "Name": "Animal Meat",
                    "SellPrice": "1272",
                    "Supply": "0",
                    "lastUpdate": "2014-07-04 22:14:36"
                },
                {
                    "BuyPrice": "0",
                    "Name": "Basic Medicines",
                    "SellPrice": "236",
                    "Supply": "0",
                    "lastUpdate": "2014-07-04 22:15:44"
                },
                {
                    "BuyPrice": "0",
                    "Name": "Bauxite",
                    "SellPrice": "62",
                    "Supply": "0",
                    "lastUpdate": "2014-07-04 22:12:17"
                },
                {
                    "BuyPrice": "0",
                    "Name": "Bertrandite",
                    "SellPrice": "2495",
                    "Supply": "0",
                    "lastUpdate": "2014-07-04 22:12:08"
                },
                {
                    "BuyPrice": "0",
                    "Name": "Biowaste",
                    "SellPrice": "53",
                    "Supply": "0",
                    "lastUpdate": "2014-07-04 22:12:43"
                },
                {
                    "BuyPrice": "0",
                    "Name": "Clothing",
                    "SellPrice": "236",
                    "Supply": "0",
                    "lastUpdate": "2014-07-04 22:14:22"
                },
                {
                    "BuyPrice": "557",
                    "Name": "Cobalt",
                    "SellPrice": "557",
                    "Supply": "12708",
                    "lastUpdate": "2014-07-04 22:13:32"
                },
                {
                    "BuyPrice": "0",
                    "Name": "Coffee",
                    "SellPrice": "1272",
                    "Supply": "0",
                    "lastUpdate": "2014-07-04 22:14:34"
                },
                {
                    "BuyPrice": "0",
                    "Name": "Coltan",
                    "SellPrice": "1360",
                    "Supply": "0",
                    "lastUpdate": "2014-07-04 22:12:09"
                },
                {
                    "BuyPrice": "0",
                    "Name": "Combat Stabilisers",
                    "SellPrice": "2855",
                    "Supply": "0",
                    "lastUpdate": "2014-07-04 22:12:01"
                },
                {
                    "BuyPrice": "0",
                    "Name": "Consumer Technology",
                    "SellPrice": "6857",
                    "Supply": "0",
                    "lastUpdate": "2014-07-04 22:11:32"
                },
                {
                    "BuyPrice": "0",
                    "Name": "Dom. Appliances",
                    "SellPrice": "463",
                    "Supply": "0",
                    "lastUpdate": "2014-07-04 22:11:34"
                },
                {
                    "BuyPrice": "148",
                    "Name": "Explosives",
                    "SellPrice": "146",
                    "Supply": "72017",
                    "lastUpdate": "2014-07-04 22:14:16"
                },
                {
                    "BuyPrice": "0",
                    "Name": "Fish",
                    "SellPrice": "687",
                    "Supply": "0",
                    "lastUpdate": "2014-07-04 22:11:37"
                },
                {
                    "BuyPrice": "0",
                    "Name": "Food Cartridges",
                    "SellPrice": "61",
                    "Supply": "0",
                    "lastUpdate": "2014-07-04 22:11:45"
                },
                {
                    "BuyPrice": "0",
                    "Name": "Gallite",
                    "SellPrice": "2180",
                    "Supply": "0",
                    "lastUpdate": "2014-07-04 22:12:16"
                },
                {
                    "BuyPrice": "0",
                    "Name": "Gold",
                    "SellPrice": "9607",
                    "Supply": "0",
                    "lastUpdate": "2014-07-04 22:12:03"
                },
                {
                    "BuyPrice": "0",
                    "Name": "Grain",
                    "SellPrice": "121",
                    "Supply": "0",
                    "lastUpdate": "2014-07-04 22:11:51"
                },
                {
                    "BuyPrice": "0",
                    "Name": "H.E. Suits",
                    "SellPrice": "193",
                    "Supply": "0",
                    "lastUpdate": "2014-07-04 22:12:19"
                },
                {
                    "BuyPrice": "0",
                    "Name": "Hel-Static Furnaces",
                    "SellPrice": "113",
                    "Supply": "0",
                    "lastUpdate": "2014-07-04 22:11:57"
                },
                {
                    "BuyPrice": "22",
                    "Name": "Hydrogen Fuels",
                    "SellPrice": "22",
                    "Supply": "23342",
                    "lastUpdate": "2014-07-04 22:34:30"
                },
                {
                    "BuyPrice": "0",
                    "Name": "Indite",
                    "SellPrice": "2329",
                    "Supply": "0",
                    "lastUpdate": "2014-07-04 22:35:47"
                },
                {
                    "BuyPrice": "0",
                    "Name": "Lepidolite",
                    "SellPrice": "530",
                    "Supply": "0",
                    "lastUpdate": "2014-07-04 22:12:13"
                },
                {
                    "BuyPrice": "0",
                    "Name": "Mineral Extractors",
                    "SellPrice": "530",
                    "Supply": "0",
                    "lastUpdate": "2014-07-04 22:35:06"
                },
                {
                    "BuyPrice": "0",
                    "Name": "Mineral Oil",
                    "SellPrice": "106",
                    "Supply": "0",
                    "lastUpdate": "2014-07-04 22:11:28"
                },
                {
                    "BuyPrice": "0",
                    "Name": "Non-Lethal Wpns",
                    "SellPrice": "1689",
                    "Supply": "0",
                    "lastUpdate": "2014-07-04 22:12:28"
                },
                {
                    "BuyPrice": "0",
                    "Name": "Performance Enhancers",
                    "SellPrice": "3495",
                    "Supply": "0",
                    "lastUpdate": "2014-07-04 22:15:08"
                },
                {
                    "BuyPrice": "31",
                    "Name": "Plastics",
                    "SellPrice": "31",
                    "Supply": "48975",
                    "lastUpdate": "2014-07-04 22:11:54"
                },
                {
                    "BuyPrice": "0",
                    "Name": "Progenitor Cells",
                    "SellPrice": "6713",
                    "Supply": "0",
                    "lastUpdate": "2014-07-04 22:35:22"
                },
                {
                    "BuyPrice": "0",
                    "Name": "Reactive Armour",
                    "SellPrice": "2038",
                    "Supply": "0",
                    "lastUpdate": "2014-07-04 22:12:40"
                },
                {
                    "BuyPrice": "0",
                    "Name": "Rutile",
                    "SellPrice": "253",
                    "Supply": "0",
                    "lastUpdate": "2014-07-04 22:35:41"
                },
                {
                    "BuyPrice": "3829",
                    "Name": "Tantalum",
                    "SellPrice": "3828",
                    "Supply": "7290",
                    "lastUpdate": "2014-07-04 22:12:04"
                },
                {
                    "BuyPrice": "0",
                    "Name": "Tea",
                    "SellPrice": "1379",
                    "Supply": "0",
                    "lastUpdate": "2014-07-04 22:11:36"
                },
                {
                    "BuyPrice": "863",
                    "Name": "Titanium",
                    "SellPrice": "862",
                    "Supply": "754",
                    "lastUpdate": "2014-07-04 22:12:06"
                }
            ],
            "id": "3",
            "station": "Dahan Gateway",
            "system": "Dahan"
        },
        {
            "Commodities": [
                {
                    "BuyPrice": "0",
                    "Name": "Algae",
                    "SellPrice": "66",
                    "Supply": "0",
                    "lastUpdate": "2014-07-07 07:46:46"
                },
                {
                    "BuyPrice": "0",
                    "Name": "Animal Meat",
                    "SellPrice": "1208",
                    "Supply": "0",
                    "lastUpdate": "2014-07-07 07:46:41"
                },
                {
                    "BuyPrice": "0",
                    "Name": "Basic Medicines",
                    "SellPrice": "224",
                    "Supply": "0",
                    "lastUpdate": "2014-07-04 23:47:29"
                },
                {
                    "BuyPrice": "30",
                    "Name": "Bauxite",
                    "SellPrice": "29",
                    "Supply": "6041",
                    "lastUpdate": "2014-07-04 23:47:46"
                },
                {
                    "BuyPrice": "2247",
                    "Name": "Bertrandite",
                    "SellPrice": "2247",
                    "Supply": "7175",
                    "lastUpdate": "2014-07-07 07:47:06"
                },
                {
                    "BuyPrice": "0",
                    "Name": "Bioreducing Lichen",
                    "SellPrice": "911",
                    "Supply": "0",
                    "lastUpdate": "2014-07-04 23:47:53"
                },
                {
                    "BuyPrice": "0",
                    "Name": "Biowaste",
                    "SellPrice": "54",
                    "Supply": "0",
                    "lastUpdate": "2014-07-04 23:47:56"
                },
                {
                    "BuyPrice": "0",
                    "Name": "Clothing",
                    "SellPrice": "237",
                    "Supply": "0",
                    "lastUpdate": "2014-07-04 23:47:03"
                },
                {
                    "BuyPrice": "0",
                    "Name": "Coffee",
                    "SellPrice": "1208",
                    "Supply": "0",
                    "lastUpdate": "2014-07-04 23:47:14"
                },
                {
                    "BuyPrice": "1172",
                    "Name": "Coltan",
                    "SellPrice": "1172",
                    "Supply": "1848",
                    "lastUpdate": "2014-07-04 23:47:50"
                },
                {
                    "BuyPrice": "0",
                    "Name": "Combat Stabilisers",
                    "SellPrice": "2865",
                    "Supply": "0",
                    "lastUpdate": "2014-07-04 23:47:33"
                },
                {
                    "BuyPrice": "0",
                    "Name": "Consumer Technology",
                    "SellPrice": "6884",
                    "Supply": "0",
                    "lastUpdate": "2014-07-04 23:47:05"
                },
                {
                    "BuyPrice": "0",
                    "Name": "Dom. Appliances",
                    "SellPrice": "465",
                    "Supply": "0",
                    "lastUpdate": "2014-07-04 23:47:08"
                },
                {
                    "BuyPrice": "0",
                    "Name": "Explosives",
                    "SellPrice": "211",
                    "Supply": "0",
                    "lastUpdate": "2014-07-07 07:46:07"
                },
                {
                    "BuyPrice": "0",
                    "Name": "Fish",
                    "SellPrice": "650",
                    "Supply": "0",
                    "lastUpdate": "2014-07-07 07:46:39"
                },
                {
                    "BuyPrice": "0",
                    "Name": "Food Cartridges",
                    "SellPrice": "61",
                    "Supply": "0",
                    "lastUpdate": "2014-07-04 23:47:18"
                },
                {
                    "BuyPrice": "9073",
                    "Name": "Gold",
                    "SellPrice": "9073",
                    "Supply": "44",
                    "lastUpdate": "2014-07-07 07:48:12"
                },
                {
                    "BuyPrice": "0",
                    "Name": "Grain",
                    "SellPrice": "114",
                    "Supply": "0",
                    "lastUpdate": "2014-07-04 23:47:23"
                },
                {
                    "BuyPrice": "0",
                    "Name": "H.E. Suits",
                    "SellPrice": "194",
                    "Supply": "0",
                    "lastUpdate": "2014-07-04 23:47:55"
                },
                {
                    "BuyPrice": "23",
                    "Name": "Hydrogen Fuels",
                    "SellPrice": "23",
                    "Supply": "927",
                    "lastUpdate": "2014-07-04 23:47:01"
                },
                {
                    "BuyPrice": "0",
                    "Name": "Liquor",
                    "SellPrice": "537",
                    "Supply": "0",
                    "lastUpdate": "2014-07-04 23:47:10"
                },
                {
                    "BuyPrice": "0",
                    "Name": "Mineral Extractors",
                    "SellPrice": "531",
                    "Supply": "0",
                    "lastUpdate": "2014-07-04 23:47:27"
                },
                {
                    "BuyPrice": "0",
                    "Name": "Mineral Oil",
                    "SellPrice": "106",
                    "Supply": "0",
                    "lastUpdate": "2014-07-04 23:46:59"
                },
                {
                    "BuyPrice": "0",
                    "Name": "Narcotics",
                    "SellPrice": "5255",
                    "Supply": "0",
                    "lastUpdate": "2014-07-04 23:47:12"
                },
                {
                    "BuyPrice": "0",
                    "Name": "Non-Lethal Wpns",
                    "SellPrice": "1695",
                    "Supply": "0",
                    "lastUpdate": "2014-07-04 23:47:58"
                },
                {
                    "BuyPrice": "0",
                    "Name": "Performance Enhancers",
                    "SellPrice": "3334",
                    "Supply": "0",
                    "lastUpdate": "2014-07-07 07:46:57"
                },
                {
                    "BuyPrice": "0",
                    "Name": "Personal Weapons",
                    "SellPrice": "4084",
                    "Supply": "0",
                    "lastUpdate": "2014-07-04 23:48:01"
                },
                {
                    "BuyPrice": "0",
                    "Name": "Progenitor Cells",
                    "SellPrice": "6558",
                    "Supply": "0",
                    "lastUpdate": "2014-07-04 23:47:35"
                },
                {
                    "BuyPrice": "0",
                    "Name": "Reactive Armour",
                    "SellPrice": "2046",
                    "Supply": "0",
                    "lastUpdate": "2014-07-07 07:47:34"
                },
                {
                    "BuyPrice": "0",
                    "Name": "Resonating Separators",
                    "SellPrice": "5728",
                    "Supply": "0",
                    "lastUpdate": "2014-07-04 23:47:52"
                },
                {
                    "BuyPrice": "192",
                    "Name": "Rutile",
                    "SellPrice": "191",
                    "Supply": "1114",
                    "lastUpdate": "2014-07-04 23:47:48"
                },
                {
                    "BuyPrice": "0",
                    "Name": "Tea",
                    "SellPrice": "1384",
                    "Supply": "0",
                    "lastUpdate": "2014-07-04 23:47:16"
                }
            ],
            "id": "4",
            "station": "Freeport",
            "system": "LP 98-132"
        },
        {
            "Commodities": [
                {
                    "BuyPrice": "0",
                    "Name": "Algae",
                    "SellPrice": "66",
                    "Supply": "0",
                    "lastUpdate": "2014-07-04 22:24:31"
                },
                {
                    "BuyPrice": "0",
                    "Name": "Animal Meat",
                    "SellPrice": "1271",
                    "Supply": "0",
                    "lastUpdate": "2014-07-04 22:24:27"
                },
                {
                    "BuyPrice": "0",
                    "Name": "Basic Medicines",
                    "SellPrice": "236",
                    "Supply": "0",
                    "lastUpdate": "2014-07-04 22:24:34"
                },
                {
                    "BuyPrice": "28",
                    "Name": "Bauxite",
                    "SellPrice": "28",
                    "Supply": "55669",
                    "lastUpdate": "2014-07-04 22:25:09"
                },
                {
                    "BuyPrice": "2338",
                    "Name": "Bertrandite",
                    "SellPrice": "2338",
                    "Supply": "3685",
                    "lastUpdate": "2014-07-04 22:25:04"
                },
                {
                    "BuyPrice": "0",
                    "Name": "Bioreducing Lichen",
                    "SellPrice": "908",
                    "Supply": "0",
                    "lastUpdate": "2014-07-04 22:25:16"
                },
                {
                    "BuyPrice": "0",
                    "Name": "Biowaste",
                    "SellPrice": "54",
                    "Supply": "0",
                    "lastUpdate": "2014-07-04 22:25:19"
                },
                {
                    "BuyPrice": "0",
                    "Name": "Clothing",
                    "SellPrice": "236",
                    "Supply": "0",
                    "lastUpdate": "2014-07-04 22:24:13"
                },
                {
                    "BuyPrice": "0",
                    "Name": "Coffee",
                    "SellPrice": "1204",
                    "Supply": "0",
                    "lastUpdate": "2014-07-04 22:24:22"
                },
                {
                    "BuyPrice": "0",
                    "Name": "Combat Stabilisers",
                    "SellPrice": "2853",
                    "Supply": "0",
                    "lastUpdate": "2014-07-04 22:24:53"
                },
                {
                    "BuyPrice": "0",
                    "Name": "Consumer Technology",
                    "SellPrice": "6855",
                    "Supply": "0",
                    "lastUpdate": "2014-07-04 22:24:15"
                },
                {
                    "BuyPrice": "0",
                    "Name": "Dom. Appliances",
                    "SellPrice": "463",
                    "Supply": "0",
                    "lastUpdate": "2014-07-04 22:24:18"
                },
                {
                    "BuyPrice": "0",
                    "Name": "Explosives",
                    "SellPrice": "221",
                    "Supply": "0",
                    "lastUpdate": "2014-07-04 22:23:59"
                },
                {
                    "BuyPrice": "0",
                    "Name": "Fish",
                    "SellPrice": "687",
                    "Supply": "0",
                    "lastUpdate": "2014-07-04 22:24:25"
                },
                {
                    "BuyPrice": "0",
                    "Name": "Food Cartridges",
                    "SellPrice": "61",
                    "Supply": "0",
                    "lastUpdate": "2014-07-04 22:24:23"
                },
                {
                    "BuyPrice": "1862",
                    "Name": "Gallite",
                    "SellPrice": "1841",
                    "Supply": "63976",
                    "lastUpdate": "2014-07-04 22:25:07"
                },
                {
                    "BuyPrice": "0",
                    "Name": "Grain",
                    "SellPrice": "117",
                    "Supply": "0",
                    "lastUpdate": "2014-07-04 22:24:29"
                },
                {
                    "BuyPrice": "0",
                    "Name": "H.E. Suits",
                    "SellPrice": "193",
                    "Supply": "0",
                    "lastUpdate": "2014-07-04 22:25:15"
                },
                {
                    "BuyPrice": "23",
                    "Name": "Hydrogen Fuels",
                    "SellPrice": "23",
                    "Supply": "4817",
                    "lastUpdate": "2014-07-04 22:24:10"
                },
                {
                    "BuyPrice": "1992",
                    "Name": "Indite",
                    "SellPrice": "1969",
                    "Supply": "46062",
                    "lastUpdate": "2014-07-04 22:24:55"
                },
                {
                    "BuyPrice": "400",
                    "Name": "Lepidolite",
                    "SellPrice": "400",
                    "Supply": "37691",
                    "lastUpdate": "2014-07-04 22:25:05"
                },
                {
                    "BuyPrice": "0",
                    "Name": "Mineral Extractors",
                    "SellPrice": "529",
                    "Supply": "0",
                    "lastUpdate": "2014-07-04 22:24:32"
                },
                {
                    "BuyPrice": "0",
                    "Name": "Mineral Oil",
                    "SellPrice": "106",
                    "Supply": "0",
                    "lastUpdate": "2014-07-04 22:24:07"
                },
                {
                    "BuyPrice": "0",
                    "Name": "Non-Lethal Wpns",
                    "SellPrice": "1689",
                    "Supply": "0",
                    "lastUpdate": "2014-07-04 22:25:21"
                },
                {
                    "BuyPrice": "0",
                    "Name": "Performance Enhancers",
                    "SellPrice": "3404",
                    "Supply": "0",
                    "lastUpdate": "2014-07-04 22:24:49"
                },
                {
                    "BuyPrice": "0",
                    "Name": "Progenitor Cells",
                    "SellPrice": "6782",
                    "Supply": "0",
                    "lastUpdate": "2014-07-04 22:24:52"
                },
                {
                    "BuyPrice": "0",
                    "Name": "Reactive Armour",
                    "SellPrice": "2037",
                    "Supply": "0",
                    "lastUpdate": "2014-07-04 22:25:22"
                },
                {
                    "BuyPrice": "0",
                    "Name": "Resonating Separators",
                    "SellPrice": "5706",
                    "Supply": "0",
                    "lastUpdate": "2014-07-04 22:25:11"
                },
                {
                    "BuyPrice": "0",
                    "Name": "Tea",
                    "SellPrice": "1378",
                    "Supply": "0",
                    "lastUpdate": "2014-07-04 22:24:20"
                }
            ],
            "id": "5",
            "station": "WCM Transfer Orbital",
            "system": "LHS 3006"
        }
    ]
}
