{
    "Stations": [
        {
            "Commodities": [
                {
                    "BuyPrice": "2452",
                    "Name": "Advanced Catalysers",
                    "SellPrice": "2424",
                    "Supply": "125747",
                    "lastUpdate": "2014-07-18 17:55:49"
                },
                {
                    "BuyPrice": "776",
                    "Name": "Agri-Medicines",
                    "SellPrice": "776",
                    "Supply": "330844",
                    "lastUpdate": "2014-07-18 20:59:39"
                },
                {
                    "BuyPrice": "0",
                    "Name": "Algae",
                    "SellPrice": "65",
                    "Supply": "0",
                    "lastUpdate": "2014-07-18 17:54:58"
                },
                {
                    "BuyPrice": "0",
                    "Name": "Aluminium",
                    "SellPrice": "251",
                    "Supply": "0",
                    "lastUpdate": "2014-07-18 17:55:40"
                },
                {
                    "BuyPrice": "0",
                    "Name": "Animal Meat",
                    "SellPrice": "1262",
                    "Supply": "0",
                    "lastUpdate": "2014-07-18 17:55:19"
                },
                {
                    "BuyPrice": "3518",
                    "Name": "Auto-Fabricators",
                    "SellPrice": "3477",
                    "Supply": "17834",
                    "lastUpdate": "2014-07-18 17:55:43"
                },
                {
                    "BuyPrice": "0",
                    "Name": "Basic Medicines",
                    "SellPrice": "235",
                    "Supply": "0",
                    "lastUpdate": "2014-07-18 17:54:40"
                },
                {
                    "BuyPrice": "0",
                    "Name": "Bertrandite",
                    "SellPrice": "2477",
                    "Supply": "0",
                    "lastUpdate": "2014-07-18 17:55:42"
                },
                {
                    "BuyPrice": "725",
                    "Name": "Bioreducing Lichen",
                    "SellPrice": "716",
                    "Supply": "193646",
                    "lastUpdate": "2014-07-18 17:55:45"
                },
                {
                    "BuyPrice": "23",
                    "Name": "Biowaste",
                    "SellPrice": "23",
                    "Supply": "781",
                    "lastUpdate": "2014-07-18 17:56:00"
                },
                {
                    "BuyPrice": "0",
                    "Name": "Clothing",
                    "SellPrice": "235",
                    "Supply": "0",
                    "lastUpdate": "2014-07-18 17:55:07"
                },
                {
                    "BuyPrice": "0",
                    "Name": "Coffee",
                    "SellPrice": "1262",
                    "Supply": "0",
                    "lastUpdate": "2014-07-18 17:55:11"
                },
                {
                    "BuyPrice": "2452",
                    "Name": "Combat Stabilisers",
                    "SellPrice": "2424",
                    "Supply": "774090",
                    "lastUpdate": "2014-07-18 17:55:36"
                },
                {
                    "BuyPrice": "0",
                    "Name": "Computer Components",
                    "SellPrice": "460",
                    "Supply": "0",
                    "lastUpdate": "2014-07-18 17:55:56"
                },
                {
                    "BuyPrice": "6654",
                    "Name": "Consumer Technology",
                    "SellPrice": "6580",
                    "Supply": "4933",
                    "lastUpdate": "2014-07-18 17:55:03"
                },
                {
                    "BuyPrice": "0",
                    "Name": "Dom. Appliances",
                    "SellPrice": "460",
                    "Supply": "0",
                    "lastUpdate": "2014-07-18 17:55:09"
                },
                {
                    "BuyPrice": "0",
                    "Name": "Fish",
                    "SellPrice": "682",
                    "Supply": "0",
                    "lastUpdate": "2014-07-18 17:55:19"
                },
                {
                    "BuyPrice": "0",
                    "Name": "Food Cartridges",
                    "SellPrice": "61",
                    "Supply": "0",
                    "lastUpdate": "2014-07-18 17:55:10"
                },
                {
                    "BuyPrice": "0",
                    "Name": "Gold",
                    "SellPrice": "9538",
                    "Supply": "0",
                    "lastUpdate": "2014-07-18 17:55:38"
                },
                {
                    "BuyPrice": "0",
                    "Name": "Grain",
                    "SellPrice": "120",
                    "Supply": "0",
                    "lastUpdate": "2014-07-18 17:55:20"
                },
                {
                    "BuyPrice": "0",
                    "Name": "H.E. Suits",
                    "SellPrice": "192",
                    "Supply": "0",
                    "lastUpdate": "2014-07-18 17:55:57"
                },
                {
                    "BuyPrice": "0",
                    "Name": "Hydrogen Fuels",
                    "SellPrice": "23",
                    "Supply": "0",
                    "lastUpdate": "2014-07-18 17:55:02"
                },
                {
                    "BuyPrice": "1607",
                    "Name": "Non-Lethal Wpns",
                    "SellPrice": "1588",
                    "Supply": "3197",
                    "lastUpdate": "2014-07-18 17:56:02"
                },
                {
                    "BuyPrice": "3037",
                    "Name": "Performance Enhancers",
                    "SellPrice": "3002",
                    "Supply": "3590569",
                    "lastUpdate": "2014-07-18 17:55:23"
                },
                {
                    "BuyPrice": "83",
                    "Name": "Pesticides",
                    "SellPrice": "81",
                    "Supply": "545692",
                    "lastUpdate": "2014-07-18 17:54:59"
                },
                {
                    "BuyPrice": "1879",
                    "Name": "Reactive Armour",
                    "SellPrice": "1878",
                    "Supply": "1294",
                    "lastUpdate": "2014-07-18 17:56:08"
                },
                {
                    "BuyPrice": "5161",
                    "Name": "Resonating Separators",
                    "SellPrice": "5158",
                    "Supply": "61719",
                    "lastUpdate": "2014-07-18 17:55:46"
                },
                {
                    "BuyPrice": "1494",
                    "Name": "Robotics",
                    "SellPrice": "1476",
                    "Supply": "36356",
                    "lastUpdate": "2014-07-18 17:55:58"
                },
                {
                    "BuyPrice": "39",
                    "Name": "Scrap",
                    "SellPrice": "39",
                    "Supply": "35057",
                    "lastUpdate": "2014-07-18 17:56:01"
                },
                {
                    "BuyPrice": "0",
                    "Name": "Tantalum",
                    "SellPrice": "3970",
                    "Supply": "0",
                    "lastUpdate": "2014-07-18 17:55:41"
                },
                {
                    "BuyPrice": "0",
                    "Name": "Tea",
                    "SellPrice": "1445",
                    "Supply": "0",
                    "lastUpdate": "2014-07-18 17:54:59"
                }
            ],
            "id": "6",
            "station": "Aulin Enterprise",
            "system": "Aulin"
        },
        {
            "Commodities": [
                {
                    "BuyPrice": "0",
                    "Name": "Agri-Medicines",
                    "SellPrice": "967",
                    "Supply": "0",
                    "lastUpdate": "2014-07-18 16:54:38"
                },
                {
                    "BuyPrice": "24",
                    "Name": "Algae",
                    "SellPrice": "24",
                    "Supply": "50141",
                    "lastUpdate": "2014-07-18 16:54:23"
                },
                {
                    "BuyPrice": "1150",
                    "Name": "Animal Meat",
                    "SellPrice": "1137",
                    "Supply": "450",
                    "lastUpdate": "2014-07-18 16:54:30"
                },
                {
                    "BuyPrice": "0",
                    "Name": "Animal Monitors",
                    "SellPrice": "220",
                    "Supply": "0",
                    "lastUpdate": "2014-07-18 16:54:46"
                },
                {
                    "BuyPrice": "0",
                    "Name": "Aquaponic Systems",
                    "SellPrice": "192",
                    "Supply": "0",
                    "lastUpdate": "2014-07-18 16:54:47"
                },
                {
                    "BuyPrice": "0",
                    "Name": "Basic Medicines",
                    "SellPrice": "235",
                    "Supply": "0",
                    "lastUpdate": "2014-07-18 16:54:37"
                },
                {
                    "BuyPrice": "0",
                    "Name": "Biowaste",
                    "SellPrice": "54",
                    "Supply": "0",
                    "lastUpdate": "2014-07-18 16:54:59"
                },
                {
                    "BuyPrice": "0",
                    "Name": "Clothing",
                    "SellPrice": "235",
                    "Supply": "0",
                    "lastUpdate": "2014-07-18 16:54:18"
                },
                {
                    "BuyPrice": "1150",
                    "Name": "Coffee",
                    "SellPrice": "1136",
                    "Supply": "1809",
                    "lastUpdate": "2014-07-18 16:54:26"
                },
                {
                    "BuyPrice": "0",
                    "Name": "Combat Stabilisers",
                    "SellPrice": "2841",
                    "Supply": "0",
                    "lastUpdate": "2014-07-18 16:54:44"
                },
                {
                    "BuyPrice": "0",
                    "Name": "Consumer Technology",
                    "SellPrice": "6826",
                    "Supply": "0",
                    "lastUpdate": "2014-07-18 16:54:19"
                },
                {
                    "BuyPrice": "263",
                    "Name": "Cotton",
                    "SellPrice": "259",
                    "Supply": "6149",
                    "lastUpdate": "2014-07-18 16:54:54"
                },
                {
                    "BuyPrice": "0",
                    "Name": "Crop Harvesters",
                    "SellPrice": "2170",
                    "Supply": "0",
                    "lastUpdate": "2014-07-18 16:54:36"
                },
                {
                    "BuyPrice": "0",
                    "Name": "Dom. Appliances",
                    "SellPrice": "461",
                    "Supply": "0",
                    "lastUpdate": "2014-07-18 16:54:17"
                },
                {
                    "BuyPrice": "0",
                    "Name": "Fish",
                    "SellPrice": "684",
                    "Supply": "0",
                    "lastUpdate": "2014-07-18 16:54:28"
                },
                {
                    "BuyPrice": "65",
                    "Name": "Grain",
                    "SellPrice": "65",
                    "Supply": "72132",
                    "lastUpdate": "2014-07-18 16:54:24"
                },
                {
                    "BuyPrice": "21",
                    "Name": "Hydrogen Fuels",
                    "SellPrice": "21",
                    "Supply": "37287",
                    "lastUpdate": "2014-07-18 16:53:56"
                },
                {
                    "BuyPrice": "48",
                    "Name": "Leather",
                    "SellPrice": "48",
                    "Supply": "40332",
                    "lastUpdate": "2014-07-18 16:54:50"
                },
                {
                    "BuyPrice": "479",
                    "Name": "Liquor",
                    "SellPrice": "473",
                    "Supply": "7383",
                    "lastUpdate": "2014-07-18 16:54:22"
                },
                {
                    "BuyPrice": "0",
                    "Name": "Marine Supplies",
                    "SellPrice": "4259",
                    "Supply": "0",
                    "lastUpdate": "2014-07-18 16:54:34"
                },
                {
                    "BuyPrice": "66",
                    "Name": "Mineral Oil",
                    "SellPrice": "66",
                    "Supply": "2052",
                    "lastUpdate": "2014-07-18 16:54:00"
                },
                {
                    "BuyPrice": "0",
                    "Name": "Narcotics",
                    "SellPrice": "5213",
                    "Supply": "0",
                    "lastUpdate": "2014-07-18 16:53:52"
                },
                {
                    "BuyPrice": "0",
                    "Name": "Non-Lethal Wpns",
                    "SellPrice": "1773",
                    "Supply": "0",
                    "lastUpdate": "2014-07-18 16:55:00"
                },
                {
                    "BuyPrice": "0",
                    "Name": "Performance Enhancers",
                    "SellPrice": "3478",
                    "Supply": "0",
                    "lastUpdate": "2014-07-18 16:54:40"
                },
                {
                    "BuyPrice": "0",
                    "Name": "Personal Weapons",
                    "SellPrice": "4259",
                    "Supply": "0",
                    "lastUpdate": "2014-07-18 16:55:02"
                },
                {
                    "BuyPrice": "0",
                    "Name": "Pesticides",
                    "SellPrice": "138",
                    "Supply": "0",
                    "lastUpdate": "2014-07-18 16:54:01"
                },
                {
                    "BuyPrice": "0",
                    "Name": "Plastics",
                    "SellPrice": "62",
                    "Supply": "0",
                    "lastUpdate": "2014-07-18 16:54:31"
                },
                {
                    "BuyPrice": "0",
                    "Name": "Reactive Armour",
                    "SellPrice": "2029",
                    "Supply": "0",
                    "lastUpdate": "2014-07-18 16:55:03"
                },
                {
                    "BuyPrice": "1331",
                    "Name": "Tea",
                    "SellPrice": "1316",
                    "Supply": "1668",
                    "lastUpdate": "2014-07-18 16:54:27"
                },
                {
                    "BuyPrice": "0",
                    "Name": "Terrain Enrichment Sys.",
                    "SellPrice": "4873",
                    "Supply": "0",
                    "lastUpdate": "2014-07-18 16:54:49"
                }
            ],
            "id": "1",
            "station": "Azeban City",
            "system": "Eranin"
        },
        {
            "Commodities": [
                {
                    "BuyPrice": "2461",
                    "Name": "Advanced Catalysers",
                    "SellPrice": "2434",
                    "Supply": "1422",
                    "lastUpdate": "2014-07-18 17:08:42"
                },
                {
                    "BuyPrice": "0",
                    "Name": "Algae",
                    "SellPrice": "63",
                    "Supply": "0",
                    "lastUpdate": "2014-07-18 17:08:30"
                },
                {
                    "BuyPrice": "0",
                    "Name": "Aluminium",
                    "SellPrice": "252",
                    "Supply": "0",
                    "lastUpdate": "2014-07-18 17:08:39"
                },
                {
                    "BuyPrice": "0",
                    "Name": "Animal Meat",
                    "SellPrice": "1268",
                    "Supply": "0",
                    "lastUpdate": "2014-07-18 17:08:32"
                },
                {
                    "BuyPrice": "164",
                    "Name": "Animal Monitors",
                    "SellPrice": "162",
                    "Supply": "2966",
                    "lastUpdate": "2014-07-18 17:08:47"
                },
                {
                    "BuyPrice": "138",
                    "Name": "Aquaponic Systems",
                    "SellPrice": "136",
                    "Supply": "4044",
                    "lastUpdate": "2014-07-18 17:09:01"
                },
                {
                    "BuyPrice": "0",
                    "Name": "Basic Medicines",
                    "SellPrice": "236",
                    "Supply": "0",
                    "lastUpdate": "2014-07-18 17:08:35"
                },
                {
                    "BuyPrice": "23",
                    "Name": "Biowaste",
                    "SellPrice": "23",
                    "Supply": "145",
                    "lastUpdate": "2014-07-18 20:18:16"
                },
                {
                    "BuyPrice": "0",
                    "Name": "Clothing",
                    "SellPrice": "236",
                    "Supply": "0",
                    "lastUpdate": "2014-07-18 17:08:10"
                },
                {
                    "BuyPrice": "0",
                    "Name": "Coffee",
                    "SellPrice": "1268",
                    "Supply": "0",
                    "lastUpdate": "2014-07-18 17:08:27"
                },
                {
                    "BuyPrice": "0",
                    "Name": "Combat Stabilisers",
                    "SellPrice": "2828",
                    "Supply": "0",
                    "lastUpdate": "2014-07-18 17:08:36"
                },
                {
                    "BuyPrice": "0",
                    "Name": "Computer Components",
                    "SellPrice": "462",
                    "Supply": "0",
                    "lastUpdate": "2014-07-18 17:08:44"
                },
                {
                    "BuyPrice": "6679",
                    "Name": "Consumer Technology",
                    "SellPrice": "6608",
                    "Supply": "493",
                    "lastUpdate": "2014-07-18 17:07:40"
                },
                {
                    "BuyPrice": "0",
                    "Name": "Dom. Appliances",
                    "SellPrice": "462",
                    "Supply": "0",
                    "lastUpdate": "2014-07-18 17:08:08"
                },
                {
                    "BuyPrice": "0",
                    "Name": "Fish",
                    "SellPrice": "685",
                    "Supply": "0",
                    "lastUpdate": "2014-07-18 17:08:23"
                },
                {
                    "BuyPrice": "0",
                    "Name": "Food Cartridges",
                    "SellPrice": "61",
                    "Supply": "0",
                    "lastUpdate": "2014-07-18 17:08:24"
                },
                {
                    "BuyPrice": "0",
                    "Name": "Gold",
                    "SellPrice": "9578",
                    "Supply": "0",
                    "lastUpdate": "2014-07-18 17:08:38"
                },
                {
                    "BuyPrice": "0",
                    "Name": "Grain",
                    "SellPrice": "121",
                    "Supply": "0",
                    "lastUpdate": "2014-07-18 17:08:29"
                },
                {
                    "BuyPrice": "0",
                    "Name": "H.E. Suits",
                    "SellPrice": "187",
                    "Supply": "0",
                    "lastUpdate": "2014-07-18 17:08:53"
                },
                {
                    "BuyPrice": "0",
                    "Name": "Hydrogen Fuels",
                    "SellPrice": "23",
                    "Supply": "0",
                    "lastUpdate": "2014-07-18 17:07:46"
                },
                {
                    "BuyPrice": "5045",
                    "Name": "Narcotics",
                    "SellPrice": "5045",
                    "Supply": "1401",
                    "lastUpdate": "2014-07-18 17:08:21"
                },
                {
                    "BuyPrice": "1499",
                    "Name": "Non-Lethal Wpns",
                    "SellPrice": "1482",
                    "Supply": "442523",
                    "lastUpdate": "2014-07-18 21:01:29"
                },
                {
                    "BuyPrice": "3322",
                    "Name": "Performance Enhancers",
                    "SellPrice": "3286",
                    "Supply": "23171",
                    "lastUpdate": "2014-07-18 17:08:33"
                },
                {
                    "BuyPrice": "4084",
                    "Name": "Personal Weapons",
                    "SellPrice": "4083",
                    "Supply": "163",
                    "lastUpdate": "2014-07-18 20:19:29"
                },
                {
                    "BuyPrice": "83",
                    "Name": "Pesticides",
                    "SellPrice": "82",
                    "Supply": "413538",
                    "lastUpdate": "2014-07-18 17:08:05"
                },
                {
                    "BuyPrice": "1886",
                    "Name": "Reactive Armour",
                    "SellPrice": "1886",
                    "Supply": "256",
                    "lastUpdate": "2014-07-18 20:20:02"
                },
                {
                    "BuyPrice": "5180",
                    "Name": "Resonating Separators",
                    "SellPrice": "5179",
                    "Supply": "104909",
                    "lastUpdate": "2014-07-18 17:08:48"
                },
                {
                    "BuyPrice": "1649",
                    "Name": "Robotics",
                    "SellPrice": "1630",
                    "Supply": "1114",
                    "lastUpdate": "2014-07-18 17:08:58"
                },
                {
                    "BuyPrice": "44",
                    "Name": "Scrap",
                    "SellPrice": "44",
                    "Supply": "1749",
                    "lastUpdate": "2014-07-18 17:09:04"
                },
                {
                    "BuyPrice": "0",
                    "Name": "Tantalum",
                    "SellPrice": "3987",
                    "Supply": "0",
                    "lastUpdate": "2014-07-18 17:08:40"
                },
                {
                    "BuyPrice": "0",
                    "Name": "Tea",
                    "SellPrice": "1451",
                    "Supply": "0",
                    "lastUpdate": "2014-07-18 17:08:26"
                },
                {
                    "BuyPrice": "4345",
                    "Name": "Terrain Enrichment Sys.",
                    "SellPrice": "4345",
                    "Supply": "3847",
                    "lastUpdate": "2014-07-18 17:08:45"
                }
            ],
            "id": "2",
            "station": "Beagle 2 Landing",
            "system": "Asellus Primus"
        },
        {
            "Commodities": [
                {
                    "BuyPrice": "0",
                    "Name": "Agri-Medicines",
                    "SellPrice": "966",
                    "Supply": "0",
                    "lastUpdate": "2014-07-18 17:45:10"
                },
                {
                    "BuyPrice": "24",
                    "Name": "Algae",
                    "SellPrice": "24",
                    "Supply": "89095",
                    "lastUpdate": "2014-07-18 17:44:57"
                },
                {
                    "BuyPrice": "0",
                    "Name": "Alloys",
                    "SellPrice": "1182",
                    "Supply": "0",
                    "lastUpdate": "2014-07-18 17:45:00"
                },
                {
                    "BuyPrice": "0",
                    "Name": "Aluminium",
                    "SellPrice": "251",
                    "Supply": "0",
                    "lastUpdate": "2014-07-18 17:45:12"
                },
                {
                    "BuyPrice": "0",
                    "Name": "Animal Meat",
                    "SellPrice": "1264",
                    "Supply": "0",
                    "lastUpdate": "2014-07-18 17:44:53"
                },
                {
                    "BuyPrice": "0",
                    "Name": "Aquaponic Systems",
                    "SellPrice": "192",
                    "Supply": "0",
                    "lastUpdate": "2014-07-18 20:32:20"
                },
                {
                    "BuyPrice": "0",
                    "Name": "Auto-Fabricators",
                    "SellPrice": "3717",
                    "Supply": "0",
                    "lastUpdate": "2014-07-18 20:32:30"
                },
                {
                    "BuyPrice": "163",
                    "Name": "Basic Medicines",
                    "SellPrice": "161",
                    "Supply": "119514",
                    "lastUpdate": "2014-07-18 17:45:09"
                },
                {
                    "BuyPrice": "0",
                    "Name": "Biowaste",
                    "SellPrice": "54",
                    "Supply": "0",
                    "lastUpdate": "2014-07-18 17:45:31"
                },
                {
                    "BuyPrice": "178",
                    "Name": "Clothing",
                    "SellPrice": "175",
                    "Supply": "5685",
                    "lastUpdate": "2014-07-18 17:44:49"
                },
                {
                    "BuyPrice": "0",
                    "Name": "Cobalt",
                    "SellPrice": "645",
                    "Supply": "0",
                    "lastUpdate": "2014-07-18 17:45:20"
                },
                {
                    "BuyPrice": "0",
                    "Name": "Coffee",
                    "SellPrice": "1264",
                    "Supply": "0",
                    "lastUpdate": "2014-07-18 17:44:52"
                },
                {
                    "BuyPrice": "0",
                    "Name": "Combat Stabilisers",
                    "SellPrice": "2838",
                    "Supply": "0",
                    "lastUpdate": "2014-07-18 17:45:08"
                },
                {
                    "BuyPrice": "382",
                    "Name": "Computer Components",
                    "SellPrice": "381",
                    "Supply": "23601",
                    "lastUpdate": "2014-07-18 17:45:25"
                },
                {
                    "BuyPrice": "0",
                    "Name": "Consumer Technology",
                    "SellPrice": "6819",
                    "Supply": "0",
                    "lastUpdate": "2014-07-18 17:44:51"
                },
                {
                    "BuyPrice": "0",
                    "Name": "Cotton",
                    "SellPrice": "329",
                    "Supply": "0",
                    "lastUpdate": "2014-07-18 17:45:29"
                },
                {
                    "BuyPrice": "1936",
                    "Name": "Crop Harvesters",
                    "SellPrice": "1911",
                    "Supply": "16493",
                    "lastUpdate": "2014-07-18 17:45:03"
                },
                {
                    "BuyPrice": "382",
                    "Name": "Dom. Appliances",
                    "SellPrice": "381",
                    "Supply": "9438",
                    "lastUpdate": "2014-07-18 17:44:48"
                },
                {
                    "BuyPrice": "546",
                    "Name": "Fish",
                    "SellPrice": "538",
                    "Supply": "3802",
                    "lastUpdate": "2014-07-18 17:44:38"
                },
                {
                    "BuyPrice": "30",
                    "Name": "Food Cartridges",
                    "SellPrice": "30",
                    "Supply": "8359",
                    "lastUpdate": "2014-07-18 17:44:55"
                },
                {
                    "BuyPrice": "0",
                    "Name": "Gold",
                    "SellPrice": "9552",
                    "Supply": "0",
                    "lastUpdate": "2014-07-18 17:45:11"
                },
                {
                    "BuyPrice": "0",
                    "Name": "Grain",
                    "SellPrice": "121",
                    "Supply": "0",
                    "lastUpdate": "2014-07-18 17:44:54"
                },
                {
                    "BuyPrice": "0",
                    "Name": "H.E. Suits",
                    "SellPrice": "192",
                    "Supply": "0",
                    "lastUpdate": "2014-07-18 17:45:24"
                },
                {
                    "BuyPrice": "63",
                    "Name": "Hel-Static Furnaces",
                    "SellPrice": "63",
                    "Supply": "7922",
                    "lastUpdate": "2014-07-18 17:45:05"
                },
                {
                    "BuyPrice": "0",
                    "Name": "Hydrogen Fuels",
                    "SellPrice": "24",
                    "Supply": "0",
                    "lastUpdate": "2014-07-18 17:44:47"
                },
                {
                    "BuyPrice": "0",
                    "Name": "Leather",
                    "SellPrice": "86",
                    "Supply": "0",
                    "lastUpdate": "2014-07-18 17:45:30"
                },
                {
                    "BuyPrice": "0",
                    "Name": "Marine Supplies",
                    "SellPrice": "4139",
                    "Supply": "0",
                    "lastUpdate": "2014-07-18 17:45:06"
                },
                {
                    "BuyPrice": "442",
                    "Name": "Mineral Extractors",
                    "SellPrice": "441",
                    "Supply": "425",
                    "lastUpdate": "2014-07-18 17:45:02"
                },
                {
                    "BuyPrice": "66",
                    "Name": "Mineral Oil",
                    "SellPrice": "66",
                    "Supply": "2899",
                    "lastUpdate": "2014-07-18 17:44:46"
                },
                {
                    "BuyPrice": "0",
                    "Name": "Performance Enhancers",
                    "SellPrice": "3475",
                    "Supply": "0",
                    "lastUpdate": "2014-07-18 17:45:07"
                },
                {
                    "BuyPrice": "0",
                    "Name": "Pesticides",
                    "SellPrice": "138",
                    "Supply": "0",
                    "lastUpdate": "2014-07-18 17:44:39"
                },
                {
                    "BuyPrice": "0",
                    "Name": "Plastics",
                    "SellPrice": "62",
                    "Supply": "0",
                    "lastUpdate": "2014-07-18 17:44:59"
                },
                {
                    "BuyPrice": "0",
                    "Name": "Robotics",
                    "SellPrice": "1771",
                    "Supply": "0",
                    "lastUpdate": "2014-07-18 17:45:23"
                },
                {
                    "BuyPrice": "44",
                    "Name": "Scrap",
                    "SellPrice": "44",
                    "Supply": "26190",
                    "lastUpdate": "2014-07-18 17:45:32"
                },
                {
                    "BuyPrice": "0",
                    "Name": "Tantalum",
                    "SellPrice": "3976",
                    "Supply": "0",
                    "lastUpdate": "2014-07-18 17:45:16"
                },
                {
                    "BuyPrice": "0",
                    "Name": "Tea",
                    "SellPrice": "1447",
                    "Supply": "0",
                    "lastUpdate": "2014-07-18 17:44:56"
                },
                {
                    "BuyPrice": "0",
                    "Name": "Terrain Enrichment Sys.",
                    "SellPrice": "4633",
                    "Supply": "0",
                    "lastUpdate": "2014-07-18 17:45:21"
                },
                {
                    "BuyPrice": "0",
                    "Name": "Titanium",
                    "SellPrice": "966",
                    "Supply": "0",
                    "lastUpdate": "2014-07-18 17:45:13"
                }
            ],
            "id": "7",
            "station": "Chango Dock",
            "system": "I Bootis"
        },
        {
            "Commodities": [
                {
                    "BuyPrice": "0",
                    "Name": "Advanced Catalysers",
                    "SellPrice": "2712",
                    "Supply": "0",
                    "lastUpdate": "2014-07-18 17:23:37"
                },
                {
                    "BuyPrice": "0",
                    "Name": "Algae",
                    "SellPrice": "66",
                    "Supply": "0",
                    "lastUpdate": "2014-07-18 17:22:39"
                },
                {
                    "BuyPrice": "1068",
                    "Name": "Alloys",
                    "SellPrice": "1067",
                    "Supply": "6667",
                    "lastUpdate": "2014-07-18 17:22:58"
                },
                {
                    "BuyPrice": "184",
                    "Name": "Aluminium",
                    "SellPrice": "184",
                    "Supply": "131356",
                    "lastUpdate": "2014-07-18 17:23:25"
                },
                {
                    "BuyPrice": "0",
                    "Name": "Animal Meat",
                    "SellPrice": "1272",
                    "Supply": "0",
                    "lastUpdate": "2014-07-18 17:22:38"
                },
                {
                    "BuyPrice": "0",
                    "Name": "Basic Medicines",
                    "SellPrice": "236",
                    "Supply": "0",
                    "lastUpdate": "2014-07-18 17:23:14"
                },
                {
                    "BuyPrice": "0",
                    "Name": "Bauxite",
                    "SellPrice": "62",
                    "Supply": "0",
                    "lastUpdate": "2014-07-18 17:23:36"
                },
                {
                    "BuyPrice": "0",
                    "Name": "Bertrandite",
                    "SellPrice": "2495",
                    "Supply": "0",
                    "lastUpdate": "2014-07-18 17:23:27"
                },
                {
                    "BuyPrice": "0",
                    "Name": "Biowaste",
                    "SellPrice": "53",
                    "Supply": "0",
                    "lastUpdate": "2014-07-18 17:23:43"
                },
                {
                    "BuyPrice": "0",
                    "Name": "Clothing",
                    "SellPrice": "236",
                    "Supply": "0",
                    "lastUpdate": "2014-07-18 17:22:30"
                },
                {
                    "BuyPrice": "557",
                    "Name": "Cobalt",
                    "SellPrice": "557",
                    "Supply": "12708",
                    "lastUpdate": "2014-07-18 17:23:30"
                },
                {
                    "BuyPrice": "0",
                    "Name": "Coffee",
                    "SellPrice": "1204",
                    "Supply": "0",
                    "lastUpdate": "2014-07-18 17:22:33"
                },
                {
                    "BuyPrice": "0",
                    "Name": "Coltan",
                    "SellPrice": "1360",
                    "Supply": "0",
                    "lastUpdate": "2014-07-18 17:23:28"
                },
                {
                    "BuyPrice": "0",
                    "Name": "Combat Stabilisers",
                    "SellPrice": "2855",
                    "Supply": "0",
                    "lastUpdate": "2014-07-18 17:23:19"
                },
                {
                    "BuyPrice": "0",
                    "Name": "Consumer Technology",
                    "SellPrice": "6857",
                    "Supply": "0",
                    "lastUpdate": "2014-07-18 17:22:25"
                },
                {
                    "BuyPrice": "0",
                    "Name": "Dom. Appliances",
                    "SellPrice": "463",
                    "Supply": "0",
                    "lastUpdate": "2014-07-18 17:22:28"
                },
                {
                    "BuyPrice": "148",
                    "Name": "Explosives",
                    "SellPrice": "146",
                    "Supply": "72017",
                    "lastUpdate": "2014-07-18 17:22:22"
                },
                {
                    "BuyPrice": "0",
                    "Name": "Fish",
                    "SellPrice": "687",
                    "Supply": "0",
                    "lastUpdate": "2014-07-18 17:22:36"
                },
                {
                    "BuyPrice": "0",
                    "Name": "Food Cartridges",
                    "SellPrice": "61",
                    "Supply": "0",
                    "lastUpdate": "2014-07-18 17:22:35"
                },
                {
                    "BuyPrice": "0",
                    "Name": "Gallite",
                    "SellPrice": "2175",
                    "Supply": "0",
                    "lastUpdate": "2014-07-18 17:23:34"
                },
                {
                    "BuyPrice": "0",
                    "Name": "Gold",
                    "SellPrice": "9607",
                    "Supply": "0",
                    "lastUpdate": "2014-07-18 17:23:20"
                },
                {
                    "BuyPrice": "0",
                    "Name": "Grain",
                    "SellPrice": "121",
                    "Supply": "0",
                    "lastUpdate": "2014-07-18 17:22:31"
                },
                {
                    "BuyPrice": "0",
                    "Name": "H.E. Suits",
                    "SellPrice": "193",
                    "Supply": "0",
                    "lastUpdate": "2014-07-18 17:23:40"
                },
                {
                    "BuyPrice": "0",
                    "Name": "Hel-Static Furnaces",
                    "SellPrice": "113",
                    "Supply": "0",
                    "lastUpdate": "2014-07-18 17:23:13"
                },
                {
                    "BuyPrice": "22",
                    "Name": "Hydrogen Fuels",
                    "SellPrice": "22",
                    "Supply": "23342",
                    "lastUpdate": "2014-07-18 17:22:24"
                },
                {
                    "BuyPrice": "0",
                    "Name": "Indite",
                    "SellPrice": "2332",
                    "Supply": "0",
                    "lastUpdate": "2014-07-18 17:23:33"
                },
                {
                    "BuyPrice": "0",
                    "Name": "Lepidolite",
                    "SellPrice": "530",
                    "Supply": "0",
                    "lastUpdate": "2014-07-18 17:23:32"
                },
                {
                    "BuyPrice": "0",
                    "Name": "Mineral Extractors",
                    "SellPrice": "530",
                    "Supply": "0",
                    "lastUpdate": "2014-07-18 17:22:59"
                },
                {
                    "BuyPrice": "0",
                    "Name": "Mineral Oil",
                    "SellPrice": "106",
                    "Supply": "0",
                    "lastUpdate": "2014-07-18 17:22:16"
                },
                {
                    "BuyPrice": "0",
                    "Name": "Non-Lethal Wpns",
                    "SellPrice": "1689",
                    "Supply": "0",
                    "lastUpdate": "2014-07-18 17:23:50"
                },
                {
                    "BuyPrice": "0",
                    "Name": "Performance Enhancers",
                    "SellPrice": "3407",
                    "Supply": "0",
                    "lastUpdate": "2014-07-18 17:23:16"
                },
                {
                    "BuyPrice": "31",
                    "Name": "Plastics",
                    "SellPrice": "31",
                    "Supply": "48975",
                    "lastUpdate": "2014-07-18 17:22:58"
                },
                {
                    "BuyPrice": "0",
                    "Name": "Reactive Armour",
                    "SellPrice": "2038",
                    "Supply": "0",
                    "lastUpdate": "2014-07-18 17:23:49"
                },
                {
                    "BuyPrice": "0",
                    "Name": "Rutile",
                    "SellPrice": "253",
                    "Supply": "0",
                    "lastUpdate": "2014-07-18 17:23:29"
                },
                {
                    "BuyPrice": "0",
                    "Name": "Scrap",
                    "SellPrice": "76",
                    "Supply": "0",
                    "lastUpdate": "2014-07-18 21:05:51"
                },
                {
                    "BuyPrice": "3829",
                    "Name": "Tantalum",
                    "SellPrice": "3828",
                    "Supply": "7290",
                    "lastUpdate": "2014-07-18 17:23:22"
                },
                {
                    "BuyPrice": "0",
                    "Name": "Tea",
                    "SellPrice": "1428",
                    "Supply": "0",
                    "lastUpdate": "2014-07-18 17:22:34"
                },
                {
                    "BuyPrice": "863",
                    "Name": "Titanium",
                    "SellPrice": "862",
                    "Supply": "754",
                    "lastUpdate": "2014-07-18 17:23:23"
                }
            ],
            "id": "3",
            "station": "Dahan Gateway",
            "system": "Dahan"
        },
        {
            "Commodities": [
                {
                    "BuyPrice": "0",
                    "Name": "Algae",
                    "SellPrice": "66",
                    "Supply": "0",
                    "lastUpdate": "2014-07-18 17:33:49"
                },
                {
                    "BuyPrice": "0",
                    "Name": "Animal Meat",
                    "SellPrice": "1230",
                    "Supply": "0",
                    "lastUpdate": "2014-07-18 17:33:47"
                },
                {
                    "BuyPrice": "0",
                    "Name": "Basic Medicines",
                    "SellPrice": "237",
                    "Supply": "0",
                    "lastUpdate": "2014-07-18 17:33:56"
                },
                {
                    "BuyPrice": "30",
                    "Name": "Bauxite",
                    "SellPrice": "29",
                    "Supply": "6041",
                    "lastUpdate": "2014-07-18 17:34:18"
                },
                {
                    "BuyPrice": "2250",
                    "Name": "Bertrandite",
                    "SellPrice": "2250",
                    "Supply": "7078",
                    "lastUpdate": "2014-07-18 17:34:17"
                },
                {
                    "BuyPrice": "0",
                    "Name": "Bioreducing Lichen",
                    "SellPrice": "911",
                    "Supply": "0",
                    "lastUpdate": "2014-07-18 17:34:23"
                },
                {
                    "BuyPrice": "0",
                    "Name": "Biowaste",
                    "SellPrice": "54",
                    "Supply": "0",
                    "lastUpdate": "2014-07-18 17:34:26"
                },
                {
                    "BuyPrice": "0",
                    "Name": "Clothing",
                    "SellPrice": "237",
                    "Supply": "0",
                    "lastUpdate": "2014-07-18 17:33:37"
                },
                {
                    "BuyPrice": "0",
                    "Name": "Coffee",
                    "SellPrice": "1208",
                    "Supply": "0",
                    "lastUpdate": "2014-07-18 17:33:42"
                },
                {
                    "BuyPrice": "1172",
                    "Name": "Coltan",
                    "SellPrice": "1172",
                    "Supply": "1848",
                    "lastUpdate": "2014-07-18 17:34:21"
                },
                {
                    "BuyPrice": "0",
                    "Name": "Combat Stabilisers",
                    "SellPrice": "2721",
                    "Supply": "0",
                    "lastUpdate": "2014-07-18 17:33:59"
                },
                {
                    "BuyPrice": "0",
                    "Name": "Consumer Technology",
                    "SellPrice": "6884",
                    "Supply": "0",
                    "lastUpdate": "2014-07-18 17:33:38"
                },
                {
                    "BuyPrice": "0",
                    "Name": "Dom. Appliances",
                    "SellPrice": "465",
                    "Supply": "0",
                    "lastUpdate": "2014-07-18 17:33:39"
                },
                {
                    "BuyPrice": "0",
                    "Name": "Explosives",
                    "SellPrice": "222",
                    "Supply": "0",
                    "lastUpdate": "2014-07-18 17:33:22"
                },
                {
                    "BuyPrice": "0",
                    "Name": "Fish",
                    "SellPrice": "650",
                    "Supply": "0",
                    "lastUpdate": "2014-07-18 17:33:46"
                },
                {
                    "BuyPrice": "0",
                    "Name": "Food Cartridges",
                    "SellPrice": "61",
                    "Supply": "0",
                    "lastUpdate": "2014-07-18 17:33:45"
                },
                {
                    "BuyPrice": "9073",
                    "Name": "Gold",
                    "SellPrice": "9073",
                    "Supply": "14",
                    "lastUpdate": "2014-07-18 17:34:16"
                },
                {
                    "BuyPrice": "0",
                    "Name": "Grain",
                    "SellPrice": "122",
                    "Supply": "0",
                    "lastUpdate": "2014-07-18 17:33:48"
                },
                {
                    "BuyPrice": "0",
                    "Name": "H.E. Suits",
                    "SellPrice": "194",
                    "Supply": "0",
                    "lastUpdate": "2014-07-18 17:34:25"
                },
                {
                    "BuyPrice": "23",
                    "Name": "Hydrogen Fuels",
                    "SellPrice": "23",
                    "Supply": "927",
                    "lastUpdate": "2014-07-18 17:33:36"
                },
                {
                    "BuyPrice": "0",
                    "Name": "Liquor",
                    "SellPrice": "556",
                    "Supply": "0",
                    "lastUpdate": "2014-07-18 17:33:40"
                },
                {
                    "BuyPrice": "0",
                    "Name": "Mineral Extractors",
                    "SellPrice": "531",
                    "Supply": "0",
                    "lastUpdate": "2014-07-18 17:33:54"
                },
                {
                    "BuyPrice": "0",
                    "Name": "Mineral Oil",
                    "SellPrice": "106",
                    "Supply": "0",
                    "lastUpdate": "2014-07-18 17:33:34"
                },
                {
                    "BuyPrice": "0",
                    "Name": "Narcotics",
                    "SellPrice": "5255",
                    "Supply": "0",
                    "lastUpdate": "2014-07-18 17:33:41"
                },
                {
                    "BuyPrice": "0",
                    "Name": "Non-Lethal Wpns",
                    "SellPrice": "1695",
                    "Supply": "0",
                    "lastUpdate": "2014-07-18 17:34:27"
                },
                {
                    "BuyPrice": "0",
                    "Name": "Performance Enhancers",
                    "SellPrice": "3334",
                    "Supply": "0",
                    "lastUpdate": "2014-07-18 17:33:57"
                },
                {
                    "BuyPrice": "0",
                    "Name": "Personal Weapons",
                    "SellPrice": "4084",
                    "Supply": "0",
                    "lastUpdate": "2014-07-18 17:34:29"
                },
                {
                    "BuyPrice": "0",
                    "Name": "Progenitor Cells",
                    "SellPrice": "6558",
                    "Supply": "0",
                    "lastUpdate": "2014-07-18 17:34:15"
                },
                {
                    "BuyPrice": "0",
                    "Name": "Reactive Armour",
                    "SellPrice": "2046",
                    "Supply": "0",
                    "lastUpdate": "2014-07-18 17:34:28"
                },
                {
                    "BuyPrice": "0",
                    "Name": "Resonating Separators",
                    "SellPrice": "5728",
                    "Supply": "0",
                    "lastUpdate": "2014-07-18 17:34:22"
                },
                {
                    "BuyPrice": "192",
                    "Name": "Rutile",
                    "SellPrice": "191",
                    "Supply": "1114",
                    "lastUpdate": "2014-07-18 17:34:20"
                },
                {
                    "BuyPrice": "0",
                    "Name": "Tea",
                    "SellPrice": "1384",
                    "Supply": "0",
                    "lastUpdate": "2014-07-18 17:33:43"
                }
            ],
            "id": "4",
            "station": "Freeport",
            "system": "LP 98-132"
        },
        {
            "Commodities": [
                {
                    "BuyPrice": "0",
                    "Name": "Algae",
                    "SellPrice": "66",
                    "Supply": "0",
                    "lastUpdate": "2014-07-18 16:39:36"
                },
                {
                    "BuyPrice": "0",
                    "Name": "Animal Meat",
                    "SellPrice": "1271",
                    "Supply": "0",
                    "lastUpdate": "2014-07-18 16:38:58"
                },
                {
                    "BuyPrice": "0",
                    "Name": "Basic Medicines",
                    "SellPrice": "236",
                    "Supply": "0",
                    "lastUpdate": "2014-07-18 16:39:07"
                },
                {
                    "BuyPrice": "28",
                    "Name": "Bauxite",
                    "SellPrice": "28",
                    "Supply": "55669",
                    "lastUpdate": "2014-07-18 21:51:30"
                },
                {
                    "BuyPrice": "2338",
                    "Name": "Bertrandite",
                    "SellPrice": "2338",
                    "Supply": "3685",
                    "lastUpdate": "2014-07-18 16:39:52"
                },
                {
                    "BuyPrice": "0",
                    "Name": "Bioreducing Lichen",
                    "SellPrice": "903",
                    "Supply": "0",
                    "lastUpdate": "2014-07-18 16:40:01"
                },
                {
                    "BuyPrice": "0",
                    "Name": "Biowaste",
                    "SellPrice": "54",
                    "Supply": "0",
                    "lastUpdate": "2014-07-18 16:40:03"
                },
                {
                    "BuyPrice": "0",
                    "Name": "Clothing",
                    "SellPrice": "236",
                    "Supply": "0",
                    "lastUpdate": "2014-07-18 16:38:58"
                },
                {
                    "BuyPrice": "0",
                    "Name": "Coffee",
                    "SellPrice": "1204",
                    "Supply": "0",
                    "lastUpdate": "2014-07-18 16:39:28"
                },
                {
                    "BuyPrice": "0",
                    "Name": "Combat Stabilisers",
                    "SellPrice": "2853",
                    "Supply": "0",
                    "lastUpdate": "2014-07-18 16:39:48"
                },
                {
                    "BuyPrice": "0",
                    "Name": "Consumer Technology",
                    "SellPrice": "6855",
                    "Supply": "0",
                    "lastUpdate": "2014-07-18 16:39:07"
                },
                {
                    "BuyPrice": "0",
                    "Name": "Dom. Appliances",
                    "SellPrice": "463",
                    "Supply": "0",
                    "lastUpdate": "2014-07-18 16:39:25"
                },
                {
                    "BuyPrice": "0",
                    "Name": "Explosives",
                    "SellPrice": "221",
                    "Supply": "0",
                    "lastUpdate": "2014-07-18 16:38:57"
                },
                {
                    "BuyPrice": "0",
                    "Name": "Fish",
                    "SellPrice": "687",
                    "Supply": "0",
                    "lastUpdate": "2014-07-18 16:39:29"
                },
                {
                    "BuyPrice": "0",
                    "Name": "Food Cartridges",
                    "SellPrice": "61",
                    "Supply": "0",
                    "lastUpdate": "2014-07-18 16:39:31"
                },
                {
                    "BuyPrice": "1862",
                    "Name": "Gallite",
                    "SellPrice": "1841",
                    "Supply": "63976",
                    "lastUpdate": "2014-07-18 16:39:55"
                },
                {
                    "BuyPrice": "0",
                    "Name": "Grain",
                    "SellPrice": "121",
                    "Supply": "0",
                    "lastUpdate": "2014-07-18 16:38:21"
                },
                {
                    "BuyPrice": "0",
                    "Name": "H.E. Suits",
                    "SellPrice": "193",
                    "Supply": "0",
                    "lastUpdate": "2014-07-18 16:40:00"
                },
                {
                    "BuyPrice": "23",
                    "Name": "Hydrogen Fuels",
                    "SellPrice": "23",
                    "Supply": "4917",
                    "lastUpdate": "2014-07-18 16:39:19"
                },
                {
                    "BuyPrice": "1992",
                    "Name": "Indite",
                    "SellPrice": "1969",
                    "Supply": "46062",
                    "lastUpdate": "2014-07-18 16:39:49"
                },
                {
                    "BuyPrice": "400",
                    "Name": "Lepidolite",
                    "SellPrice": "400",
                    "Supply": "37691",
                    "lastUpdate": "2014-07-18 16:39:54"
                },
                {
                    "BuyPrice": "0",
                    "Name": "Mineral Extractors",
                    "SellPrice": "529",
                    "Supply": "0",
                    "lastUpdate": "2014-07-18 16:39:38"
                },
                {
                    "BuyPrice": "0",
                    "Name": "Mineral Oil",
                    "SellPrice": "106",
                    "Supply": "0",
                    "lastUpdate": "2014-07-18 16:39:06"
                },
                {
                    "BuyPrice": "0",
                    "Name": "Non-Lethal Wpns",
                    "SellPrice": "1689",
                    "Supply": "0",
                    "lastUpdate": "2014-07-18 16:40:05"
                },
                {
                    "BuyPrice": "0",
                    "Name": "Performance Enhancers",
                    "SellPrice": "3493",
                    "Supply": "0",
                    "lastUpdate": "2014-07-18 16:39:43"
                },
                {
                    "BuyPrice": "0",
                    "Name": "Reactive Armour",
                    "SellPrice": "2037",
                    "Supply": "0",
                    "lastUpdate": "2014-07-18 16:40:06"
                },
                {
                    "BuyPrice": "0",
                    "Name": "Resonating Separators",
                    "SellPrice": "5706",
                    "Supply": "0",
                    "lastUpdate": "2014-07-18 16:39:58"
                },
                {
                    "BuyPrice": "0",
                    "Name": "Tea",
                    "SellPrice": "1411",
                    "Supply": "0",
                    "lastUpdate": "2014-07-18 16:39:26"
                }
            ],
            "id": "5",
            "station": "WCM Transfer Orbital",
            "system": "LHS 3006"
        }
    ]
}
